import os

DEBUG = False

DATABASES = {
    'default': {
        'ENGINE': ,
        'NAME': ,
        'USER': ,
        'PASSWORD': ,
        'HOST': ,
        'PORT': ,
    }
}

EMAIL_USE_SSL = 
EMAIL_HOST = 
EMAIL_PORT = 
EMAIL_HOST_USER = 
EMAIL_HOST_PASSWORD = 
DEFAULT_FROM_EMAIL =
